EDI_Just2Trade_MF_SRF_20160408
ScexhID	BbcID	BbeID	SedolID	SedolActflag	Actflag	Changed	Created	SecID	IssID	ISIN	USCode	IssuerName	CntryofIncorp	SIC	CIK	IndusID	SectyCD	SecurityDesc	ParValue	PVCurrency	StatusFlag	PrimaryExchgCD	BbgCurrency	BbgCompositeGlobalID	BbgCompositeTicker	BbgGlobalID	BbgExchangeTicker	Sedol	SedolDefunct	SedolRegCntryCD	StructCD	ExchgCntry	ExchgCD	Mic	Micseg	LocalCode	ListStatus
191873	0	0	94100	I	U	2012/07/28	2004/03/01	121390	78999	GB0005631725		Capita Financial Managers Ltd.	GB				MF	CF Canlife North American Unit Trust - Accumulation		GBP	I	GBUT						0563172	F	GB		GB	GBUT				L
165461	0	0	94101	U	U	2009/07/08	2003/12/20	121391	78999	GB0001692135		Capita Financial Managers Ltd.	GB				MF	CF Canlife Gilt & Fixed Interest Unit Trust - Income		GBP	A	GBUT						0169213	T	GB		GB	GBUT				L
165480	0	0	94103	I	U	2012/12/10	2003/12/20	121401	126205	GB0031042442		Architas Multi-Manager Ltd	GB				MF	Architas MA Blended Reserve Fund Class R - Income		GBP	A	GBUT						3104244	F	GB		GB	GBUT				L
165484	0	0	94104	I	U	2012/09/27	2003/12/20	121402	126205	GB0031042335		Architas Multi-Manager Ltd	GB				MF	Architas MA Blended Reserve Fund Class R - Accumulation		GBP	A	GBUT						3104233	F	GB		GB	GBUT				L
165493	0	0	100645	U	U	2009/06/09	2003/12/20	121403	78999	GB0031685182		Capita Financial Managers Ltd.	GB				MF	CF Taylor Young Equity Income Fund Class A - Income		GBP	A	GBUT						3168518	T	GB		GB	GBUT				L
165498	0	0	94105	I	U	2012/09/27	2003/12/20	121404	126205	GB0032816869		Architas Multi-Manager Ltd	GB				MF	Architas MM Strategic Bond Fund Class R - Accumulation		GBP	A	GBUT						3281686	F	GB		GB	GBUT				L
165500	0	0	94106	I	U	2012/12/10	2003/12/20	121405	126205	GB0032816976		Architas Multi-Manager Ltd	GB				MF	Architas MA Blended Growth Fund Class R - Accumulation		GBP	A	GBUT						3281697	F	GB		GB	GBUT				L
165502	0	0	100644	U	U	2009/06/09	2003/12/20	121406	78999	GB0031724783		Capita Financial Managers Ltd.	GB				MF	CF Taylor Young Equity Income Fund Class A - Accumulation		GBP	A	GBUT						3172478	T	GB		GB	GBUT				L
165522	0	0	94111	I	U	2012/09/05	2003/12/22	121429	126205	GB0031042111		Architas Multi-Manager Ltd	GB				MF	Architas MM Global Equity Fund - Accumulation		GBP	I	GBUT						3104211	F	GB		GB	GBUT				L
165524	0	0	94112	I	U	2012/09/27	2003/12/22	121433	126205	GB0032817057		Architas Multi-Manager Ltd	GB				MF	Architas MA Blended Progressive Fund Class R - Accumulation		GBP	A	GBUT						3281705	F	GB		GB	GBUT				L
165527	0	0	94113	I	U	2008/11/24	2003/12/22	121438	78934	GB0000185313		HSBC Global Asset Management (UK) Ltd	GB				MF	HSBC UK Growth & Income Retail - Income		GBP	A	GBUT						0018531	F	GB		GB	GBUT				L
165528	0	0	94114	I	U	2012/12/11	2003/12/22	121441	126205	GB0031042228		Architas Multi-Manager Ltd	GB				MF	Architas MM Monthly High Income Fund Class R - Income		GBP	A	GBUT						3104222	F	GB		GB	GBUT				L
165536	0	0	94116	I	U	2012/09/27	2003/12/22	121457	126205	GB0031042004		Architas Multi-Manager Ltd	GB				MF	Architas MM Monthly High Income Fund Class R - Accumulation		GBP	A	GBUT						3104200	F	GB		GB	GBUT				L
165545	0	0	94118	I	U	2008/11/24	2003/12/22	121480	78934	GB0000189950		HSBC Global Asset Management (UK) Ltd	GB				MF	HSBC UK Growth & Income Retail - Accumulation		GBP	A	GBUT						0018995	F	GB		GB	GBUT				L
165547	0	0	94134	I	U	2006/04/14	2003/12/22	121483	78932	GB0001449197		Threadneedle Investments	GB				MF	Threadneedle Managed Income Fund Class 1 - Income		GBP	A	GBUT						0144919	F	GB		GB	GBUT				L
165550	0	0	94119	I	U	2008/11/24	2003/12/22	121485	78934	GB0000154913		HSBC Global Asset Management (UK) Ltd	GB				MF	HSBC Income Fund Retail - Income		GBP	A	GBUT						0015491	F	GB		GB	GBUT				L
165554	0	0	94120	I	U	2008/11/24	2003/12/22	121489	78934	GB0000156843		HSBC Global Asset Management (UK) Ltd	GB				MF	HSBC Income Fund Retail - Accumulation		GBP	A	GBUT						0015684	F	GB		GB	GBUT				L
165560	0	0	94121	I	U	2008/11/24	2003/12/22	121495	78934	GB0000160308		HSBC Global Asset Management (UK) Ltd	GB				MF	HSBC Monthly Income Retail - Income		GBP	A	GBUT						0016030	F	GB		GB	GBUT				L
165584	0	0	94122	I	U	2008/11/24	2003/12/22	121496	78934	GB0000160639		HSBC Global Asset Management (UK) Ltd	GB				MF	HSBC Monthly Income Retail - Accumulation		GBP	A	GBUT						0016063	F	GB		GB	GBUT				L
165602	0	0	0		U	2004/03/24	2003/12/22	121498	78938			Edinburgh Unit Trust Managers Ltd.	GB				MF	Edinburgh Gilt and Fixed Interest Fund - Accumulation		GBP	A	GBUT										GB	GBUT				L
165607	0	0	0		U	2004/03/24	2003/12/22	121499	78938			Edinburgh Unit Trust Managers Ltd.	GB				MF	Edinburgh Deposit Fund - Accumulation		GBP	A	GBUT										GB	GBUT				L
165610	0	0	94125	I	U	2013/01/30	2003/12/22	121504	78939	GB0031440026		Schroder Unit Trust Ltd.	GB				MF	Schroder UK Alpha Plus Fund Class A - Income		GBP	A	GBUT						3144002	F	GB		GB	GBUT				L
165616	0	0	94126	I	U	2013/01/30	2003/12/22	121511	78939	GB0031440133		Schroder Unit Trust Ltd.	GB				MF	Schroder UK Alpha Plus Fund Class A - Accumulation		GBP	A	GBUT						3144013	F	GB		GB	GBUT				L
165620	0	0	94128	I	U	2006/07/25	2003/12/22	121515	78939	GB0007649311		Schroder Unit Trust Ltd.	GB				MF	Schroder UK Smaller Companies Fund Class A - Income		GBP	A	GBUT						0764931	F	GB		GB	GBUT				L
165621	0	0	94129	I	U	2008/11/24	2003/12/22	121517	78934	GB0000154467		HSBC Global Asset Management (UK) Ltd	GB				MF	HSBC Gilt & Fixed Interest Retail - Income		GBP	A	GBUT						0015446	F	GB		GB	GBUT				L
165623	0	0	94130	I	U	2006/07/25	2003/12/22	121520	78939	GB0007649535		Schroder Unit Trust Ltd.	GB				MF	Schroder UK Smaller Companies Fund Class A - Accumulation		GBP	A	GBUT						0764953	F	GB		GB	GBUT				L
165624	0	0	94131	I	U	2008/11/24	2003/12/22	121526	78934	GB0000154681		HSBC Global Asset Management (UK) Ltd	GB				MF	HSBC Gilt & Fixed Interest Retail - Accumulation		GBP	A	GBUT						0015468	F	GB		GB	GBUT				L
165627	0	0	94132	I	U	2006/09/28	2003/12/22	121536	78939	GB0008528589		Schroder Unit Trust Ltd.	GB				MF	Schroder UK mid 250 Fund Class A - Income		GBP	A	GBUT						0852858	F	GB		GB	GBUT				L
165629	0	0	94133	I	U	2006/09/28	2003/12/22	121538	78939	GB0008528696		Schroder Unit Trust Ltd.	GB				MF	Schroder UK mid 250 Fund Class A - Accumulation		GBP	A	GBUT						0852869	F	GB		GB	GBUT				L
165630	0	0	100894	I	U	2013/07/23	2003/12/22	121540	78940	GB0004456892		Aviva Investors UK Fund Services Limited	GB				MF	Aviva Investors UK Equity Fund Class 1 - Income		GBP	A	GBUT						0445689	F	GB		GB	GBUT				L
165649	0	0	94138	I	U	2008/11/24	2003/12/22	121554	78934	GB0000407618		HSBC Global Asset Management (UK) Ltd	GB				MF	HSBC FTSE 100 Index Retail - Income		GBP	A	GBUT						0040761	F	GB		GB	GBUT				L
165668	0	0	94139	I	U	2015/04/10	2003/12/22	121555	78941	GB0032033234		Hargreaves Lansdown Fund Managers Ltd.	GB				MF	HL Multi Manager Income and Growth Trust A - Income		GBP	A	GBUT						3203323	F	GB		GB	GBUT				L
165676	0	0	94140	I	U	2015/04/10	2003/12/22	121557	78941	GB0032033127		Hargreaves Lansdown Fund Managers Ltd.	GB				MF	HL Multi Manager Income and Growth Trust A - Accumulation		GBP	A	GBUT						3203312	F	GB		GB	GBUT				L
165690	0	0	94141	I	U	2008/11/24	2003/12/22	121558	78934	GB0000412477		HSBC Global Asset Management (UK) Ltd	GB				MF	HSBC FTSE 100 Index Retail - Accumulation		GBP	A	GBUT						0041247	F	GB		GB	GBUT				L
165695	0	0	100896	I	U	2013/07/23	2003/12/22	121560	78940	GB0004460357		Aviva Investors UK Fund Services Limited	GB				MF	Aviva Investors UK Equity Fund Class 2 - Accumulation		GBP	A	GBUT						0446035	F	GB		GB	GBUT				L
165721	0	0	94142	I	U	2015/04/10	2003/12/22	121563	78941	GB0030281066		Hargreaves Lansdown Fund Managers Ltd.	GB				MF	HL Multi-Manager Special Situations Trust A - Accumulation		GBP	A	GBUT						3028106	F	GB		GB	GBUT				L
165724	0	0	100898	I	U	2013/07/23	2003/12/22	121564	78940	GB0004463252		Aviva Investors UK Fund Services Limited	GB				MF	Aviva Investors UK Equity Fund Class 3 - Income		GBP	A	GBUT						0446325	F	GB		GB	GBUT				L
165753	0	0	94143	I	U	2015/04/10	2003/12/22	121566	78941	GB0005890487		Hargreaves Lansdown Fund Managers Ltd.	GB				MF	HL Multi-Manager Balanced Managed Trust A - Accumulation		GBP	A	GBUT						0589048	F	GB		GB	GBUT				L
165795	0	0	100161	I	U	2008/11/24	2003/12/22	121569	78934	GB0000424886		HSBC Global Asset Management (UK) Ltd	GB				MF	HSBC FTSE All-Share Index Retail - Income		GBP	A	GBUT						0042488	F	GB		GB	GBUT				L
165787	0	0	94145	I	U	2013/07/23	2003/12/22	121572	78940	GB0032493834		Aviva Investors UK Fund Services Limited	GB				MF	Aviva Investors UK Equity Fund Class A - Income		GBP	A	GBUT						3249383	F	GB		GB	GBUT				L
165812	0	0	100899	I	U	2013/07/23	2003/12/22	121575	78940	GB0004457197		Aviva Investors UK Fund Services Limited	GB				MF	Aviva Investors UK Equity Income Fund Class 1 - Income		GBP	A	GBUT						0445719	F	GB		GB	GBUT				L
165815	0	0	100900	I	U	2013/07/23	2003/12/22	121577	78940	GB0004460803		Aviva Investors UK Fund Services Limited	GB				MF	Aviva Investors UK Equity Income Fund Class 2 - Income		GBP	A	GBUT						0446080	F	GB		GB	GBUT				L
165816	0	0	100155	I	U	2008/11/24	2003/12/22	121578	78934	GB0000438233		HSBC Global Asset Management (UK) Ltd	GB				MF	HSBC FTSE All-Share Index Retail - Accumulation		GBP	A	GBUT						0043823	F	GB		GB	GBUT				L
165818	0	0	100901	I	U	2013/07/23	2003/12/22	121580	78940	GB0004463476		Aviva Investors UK Fund Services Limited	GB				MF	Aviva Investors UK Equity Income Fund Class 3 - Income		GBP	A	GBUT						0446347	F	GB		GB	GBUT				L
165820	0	0	94147	I	U	2013/07/23	2003/12/22	121582	78940	GB0032494022		Aviva Investors UK Fund Services Limited	GB				MF	Aviva Investors UK Equity Income Fund Class A - Income		GBP	A	GBUT						3249402	F	GB		GB	GBUT				L
165822	0	0	94149	I	U	2008/11/24	2003/12/22	121584	78934	GB0030340060		HSBC Global Asset Management (UK) Ltd	GB				MF	HSBC FTSE All-Share Index Stakeholders - Accumulation		GBP	A	GBUT						3034006	T	GB		GB	GBUT				L
165825	0	0	100902	I	U	2013/07/23	2003/12/22	121587	78940	GB0006820889		Aviva Investors UK Fund Services Limited	GB				MF	Aviva Investors UK Ethical Fund Class 1 - Accumulation		GBP	A	GBUT						0682088	F	GB		GB	GBUT				L
165829	0	0	100904	I	U	2013/07/23	2003/12/23	121589	78940	GB0006820996		Aviva Investors UK Fund Services Limited	GB				MF	Aviva Investors UK Ethical Fund Class 2 - Accumulation		GBP	A	GBUT						0682099	F	GB		GB	GBUT				L
165830	0	0	94150	I	U	2004/07/22	2003/12/23	121590	78947	GB0008494188		Mchattie Investment Management Ltd.	GB				MF	Mchattie Wrt Alert Fund		GBP	A	GBUT						0849418	F	GB		GB	GBUT				L
165833	0	0	94152	I	U	2008/11/24	2003/12/23	121592	78934	GB0031008880		HSBC Global Asset Management (UK) Ltd	GB				MF	HSBC FTSE All-Share Index Institutional `A` - Income		GBP	A	GBUT						3100888	F	GB		GB	GBUT				L
165832	0	0	0		U	2004/03/31	2003/12/23	121593	78938			Edinburgh Unit Trust Managers Ltd.	GB				MF	Edinburgh Portfolio FSAVC Pension Scheme - Accumulation		GBP	A	GBUT										GB	GBUT				L
165834	0	0	100906	I	U	2013/07/23	2003/12/23	121594	78940	GB0006820772		Aviva Investors UK Fund Services Limited	GB				MF	Aviva Investors UK Ethical Fund Class 3 - Income		GBP	A	GBUT						0682077	F	GB		GB	GBUT				L
165836	0	0	94153	I	U	2008/11/24	2003/12/23	121596	78934	GB0031008443		HSBC Global Asset Management (UK) Ltd	GB				MF	HSBC FTSE All-Share Index Institutional `A` - Accumulation		GBP	A	GBUT						3100844	F	GB		GB	GBUT				L
165838	0	0	94154	I	U	2013/07/23	2003/12/23	121598	78940	GB0032494139		Aviva Investors UK Fund Services Limited	GB				MF	Aviva Investors UK Ethical Fund Class A - Accumulation		GBP	A	GBUT						3249413	F	GB		GB	GBUT				L
165839	0	0	96188	I	U	2013/07/24	2003/12/23	121599	78949	GB0030367907		Sand Aire Ltd.	GB				MF	Sand Aire Generation Fund - Income		GBP	A	GBUT						3036790	F	GB		GB	GBUT				L
165841	0	0	94155	I	U	2008/11/24	2003/12/23	121601	78934	GB0000467703		HSBC Global Asset Management (UK) Ltd	GB				MF	HSBC FTSE 250 Index Retail - Income		GBP	A	GBUT						0046770	F	GB		GB	GBUT				L
165843	0	0	94156	I	U	2008/11/24	2003/12/23	121604	78934	GB0000467810		HSBC Global Asset Management (UK) Ltd	GB				MF	HSBC FTSE 250 Index Retail - Accumulation		GBP	A	GBUT						0046781	F	GB		GB	GBUT				L
165846	0	0	94157	I	U	2004/06/09	2003/12/23	121606	78950	GB0003315511		Family Investment Management Ltd	GB				MF	Family Asset Trust - Accumulation		GBP	A	GBUT						0331551	F	GB		GB	GBUT				L
165847	0	0	100908	I	U	2013/07/23	2003/12/23	121607	78940	GB0004456900		Aviva Investors UK Fund Services Limited	GB				MF	Aviva Investors UK Growth Fund Class 1 - Accumulation		GBP	A	GBUT						0445690	F	GB		GB	GBUT				L
165849	0	0	100909	I	U	2013/07/23	2003/12/23	121609	78940	GB0004460571		Aviva Investors UK Fund Services Limited	GB				MF	Aviva Investors UK Growth Fund Class 2 - Accumulation		GBP	A	GBUT						0446057	F	GB		GB	GBUT				L
165850	0	0	94158	I	U	2004/06/09	2003/12/23	121610	78950	GB0005782627		Family Investment Management Ltd	GB				MF	Family Charities Ethical Trust - Income		GBP	A	GBUT						0578262	F	GB		GB	GBUT				L
165852	0	0	94159	I	U	2004/06/09	2003/12/23	121612	78950	GB0006685613		Family Investment Management Ltd	GB				MF	Family Charities Ethical Trust - Accumulation		GBP	A	GBUT						0668561	F	GB		GB	GBUT				L
165854	0	0	100911	I	U	2013/07/23	2003/12/23	121614	78940	GB0004463369		Aviva Investors UK Fund Services Limited	GB				MF	Aviva Investors UK Growth Fund Class 3 - Income		GBP	A	GBUT						0446336	F	GB		GB	GBUT				L
165856	0	0	94160	I	U	2013/07/23	2003/12/23	121616	78940	GB0032493941		Aviva Investors UK Fund Services Limited	GB				MF	Aviva Investors UK Growth Fund Class A - Accumulation		GBP	A	GBUT						3249394	F	GB		GB	GBUT				L
165863	0	0	100914	U	U	2015/02/09	2003/12/23	121623	78940	GB0030443849		Aviva Investors UK Fund Services Limited	GB				MF	Aviva Investors UK Income & Growth Fund Class 1 - Income		GBP	I	GBUT						3044384	T	GB		GB	GBUT				L
165868	0	0	100915	I	U	2015/02/09	2003/12/23	121628	78940	GB0030444037		Aviva Investors UK Fund Services Limited	GB				MF	Aviva Investors UK Income & Growth Fund Class 3 - Income		GBP	I	GBUT						3044403	F	GB		GB	GBUT				L
165870	0	0	100916	I	U	2013/07/23	2003/12/23	121629	78940	GB0004459797		Aviva Investors UK Fund Services Limited	GB				MF	Aviva Investors UK Index Tracking Fund Class 1 - Income		GBP	A	GBUT						0445979	F	GB		GB	GBUT				L
165872	0	0	100917	I	U	2013/07/23	2003/12/23	121632	78940	GB0004464995		Aviva Investors UK Fund Services Limited	GB				MF	Aviva Investors UK Index Tracking Fund Class 3 - Accumulation		GBP	A	GBUT						0446499	F	GB		GB	GBUT				L
165878	0	0	100920	I	U	2013/07/23	2003/12/23	121638	78940	GB0004457312		Aviva Investors UK Fund Services Limited	GB				MF	Aviva Investors UK Smaller Companies Fund Class 1 - Accumulation		GBP	A	GBUT						0445731	F	GB		GB	GBUT				L
165881	0	0	100921	I	U	2013/07/23	2003/12/23	121641	78940	GB0004462171		Aviva Investors UK Fund Services Limited	GB				MF	Aviva Investors UK Smaller Companies Fund Class 2 - Accumulation		GBP	A	GBUT						0446217	F	GB		GB	GBUT				L
165882	0	0	100922	I	U	2013/07/23	2003/12/23	121642	78940	GB0004463583		Aviva Investors UK Fund Services Limited	GB				MF	Aviva Investors UK Smaller Companies Fund Class 3 - Income		GBP	A	GBUT						0446358	F	GB		GB	GBUT				L
165884	0	0	100833	I	U	2013/07/23	2003/12/23	121644	78940	GB0030442981		Aviva Investors UK Fund Services Limited	GB				MF	Aviva Investors Blue Chip Tracking Fund Class 1 - Income		GBP	A	GBUT						3044298	T	GB		GB	GBUT				L
165886	0	0	100838	I	U	2013/07/23	2003/12/23	121646	78940	GB0030443179		Aviva Investors UK Fund Services Limited	GB				MF	Aviva Investors Blue Chip Tracking Fund Class 3 - Income		GBP	A	GBUT						3044317	T	GB		GB	GBUT				L
165902	0	0	94175	I	U	2008/11/24	2003/12/23	121663	78934	GB0000468776		HSBC Global Asset Management (UK) Ltd	GB				MF	HSBC European Index Retail - Income		GBP	A	GBUT						0046877	F	GB		GB	GBUT				L
165905	0	0	94176	I	U	2008/11/24	2003/12/23	121666	78934	GB0000469071		HSBC Global Asset Management (UK) Ltd	GB				MF	HSBC European Index Retail - Accumulation		GBP	A	GBUT						0046907	F	GB		GB	GBUT				L
165906	0	0	94178	U	U	2008/11/24	2003/12/23	121668	78934	GB0000469303		HSBC Global Asset Management (UK) Ltd	GB				MF	HSBC European Index Institutional - Accumulation		GBP	A	GBUT						0046930	F	GB		GB	GBUT				L
165907	0	0	94177	I	U	2008/11/24	2003/12/23	121669	78934	GB0030339955		HSBC Global Asset Management (UK) Ltd	GB				MF	HSBC European Index Stakeholder - Accumulation		GBP	A	GBUT						3033995	F	GB		GB	GBUT				L
165913	0	0	94180	I	U	2008/11/24	2003/12/23	121674	78934	GB0000150606		HSBC Global Asset Management (UK) Ltd	GB				MF	HSBC Pacific Index Retail - Income		GBP	A	GBUT						0015060	F	GB		GB	GBUT				L
165915	0	0	94181	U	U	2013/07/24	2003/12/23	121675	78957	GB0006194400		NFU Mutual Unit Managers Ltd.	GB				MF	NFU Avon Equity Unit Trust		GBP	I	GBUT						0619440	T	GB		GB	GBUT				L
165918	0	0	94183	I	U	2008/11/24	2003/12/23	121677	78934	GB0000150713		HSBC Global Asset Management (UK) Ltd	GB				MF	HSBC Pacific Index Retail - Accumulation		GBP	A	GBUT						0015071	F	GB		GB	GBUT				L
165941	0	0	94192	I	U	2008/11/24	2003/12/23	121700	78934	GB0000150150		HSBC Global Asset Management (UK) Ltd	GB				MF	HSBC Japan Index Retail - Income		GBP	A	GBUT						0015015	F	GB		GB	GBUT				L
165945	0	0	94194	I	U	2008/03/24	2003/12/23	121702	78964	GB0005658447		Marks & Spencer Unit Trust Management Ltd.	GB				MF	M&S UK 100 Companies Fund - Income		GBP	A	GBUT						0565844	F	GB		GB	GBUT				L
165944	0	0	94193	I	U	2008/11/24	2003/12/23	121703	78934	GB0000150374		HSBC Global Asset Management (UK) Ltd	GB				MF	HSBC Japan Index Retail - Accumulation		GBP	A	GBUT						0015037	F	GB		GB	GBUT				L
165949	0	0	94196	U	U	2008/11/24	2003/12/23	121705	78934	GB0000150481		HSBC Global Asset Management (UK) Ltd	GB				MF	HSBC Japan Index Institutional - Accumulation		GBP	A	GBUT						0015048	F	GB		GB	GBUT				L
165954	0	0	94197	U	U	2005/04/27	2003/12/23	121706	79185	GB0004378351		Gartmore Fund Manager	GB				MF	Gartmore Money Market Fund - Income		GBP	I	GBUT						0437835	T	GB		GB	GBUT				L
165962	0	0	94198	I	U	2008/03/24	2003/12/23	121713	78964	GB0005660963		Marks & Spencer Unit Trust Management Ltd.	GB				MF	M&S UK 100 Companies Fund - Accumulation		GBP	A	GBUT						0566096	F	GB		GB	GBUT				L
165963	0	0	94199	U	U	2004/09/04	2003/12/23	121715	79185	GB0003785143		Gartmore Fund Manager	GB				MF	Gartmore UK Safeguard Fund Retail - Accumulation		GBP	I	GBUT						0378514	T	GB		GB	GBUT				L
165967	0	0	94200	I	U	2008/03/24	2003/12/23	121716	78964	GB0005655542		Marks & Spencer Unit Trust Management Ltd.	GB				MF	M&S Worldwide Managed Fund - Income		GBP	A	GBUT						0565554	F	GB		GB	GBUT				L
165969	0	0	94201	I	U	2008/03/24	2003/12/23	121717	78964	GB0005655435		Marks & Spencer Unit Trust Management Ltd.	GB				MF	M&S Worldwide Managed Fund - Accumulation		GBP	A	GBUT						0565543	F	GB		GB	GBUT				L
166069	0	0	98975	I	U	2010/05/19	2003/12/23	121784	78969	GB0030038359		CIS Unit Managers Ltd	GB				MF	CIS US Growth Trust - Income		GBP	A	GBUT						3003835	F	GB		GB	GBUT				L
166072	0	0	98972	I	U	2004/07/22	2003/12/23	121786	78969	GB0009537407		CIS Unit Managers Ltd	GB				MF	CIS European Growth Trust - Income		GBP	A	GBUT						0953740	F	GB		GB	GBUT				L
166073	0	0	98971	I	U	2012/12/06	2003/12/23	121787	78969	GB0001615102		CIS Unit Managers Ltd	GB				MF	CIS Sustainable Leaders Trust Class A - Income		GBP	A	GBUT						0161510	F	GB		GB	GBUT				L
166075	0	0	98973	I	U	2004/07/22	2003/12/23	121789	78969	GB0001597979		CIS Unit Managers Ltd	GB				MF	CIS UK Growth Trust - Income		GBP	A	GBUT						0159797	F	GB		GB	GBUT				L
166078	0	0	94202	I	U	2008/03/24	2003/12/23	121792	78964	GB0005652192		Marks & Spencer Unit Trust Management Ltd.	GB				MF	M&S UK Selection Portfolio - Income		GBP	A	GBUT						0565219	F	GB		GB	GBUT				L
166082	0	0	94204	I	U	2008/03/24	2003/12/23	121795	78964	GB0005652200		Marks & Spencer Unit Trust Management Ltd.	GB				MF	M&S UK Selection Portfolio - Accumulation		GBP	A	GBUT						0565220	F	GB		GB	GBUT				L
166083	0	0	100647	U	U	2015/02/09	2003/12/23	121797	78999	GB0031685307		Capita Financial Managers Ltd.	GB				MF	CF Taylor Young Growth & Income Fund Class A - Income		GBP	I	GBUT						3168530	T	GB		GB	GBUT				L
166091	0	0	94206	I	U	2008/03/24	2003/12/23	121803	78964	GB0005750145		Marks & Spencer Unit Trust Management Ltd.	GB				MF	M&S High Income Fund - Income		GBP	A	GBUT						0575014	F	GB		GB	GBUT				L
166090	0	0	100646	U	U	2009/06/09	2003/12/23	121804	78999	GB0031685521		Capita Financial Managers Ltd.	GB				MF	CF Taylor Young Growth & Income Fund Class A - Accumulation		GBP	A	GBUT						3168552	T	GB		GB	GBUT				L
166092	0	0	94207	I	U	2008/03/24	2003/12/23	121805	78964	GB0030013345		Marks & Spencer Unit Trust Management Ltd.	GB				MF	M&S High Income Fund - Accumulation		GBP	A	GBUT						3001334	F	GB		GB	GBUT				L
166094	0	0	94208	I	U	2004/07/03	2003/12/23	121807	78971	GB0006014582		Baillie Gifford & Co. Ltd.	GB				MF	Baillie Gifford Japanese Smaller Co. Fund Class B - Income		GBP	A	GBUT						0601458	F	GB		GB	GBUT				L
166096	0	0	94209	I	U	2004/07/03	2003/12/23	121808	78971	GB0006014921		Baillie Gifford & Co. Ltd.	GB				MF	Baillie Gifford Japanese Smaller Co. Fund Class B - Accumulation		GBP	A	GBUT						0601492	F	GB		GB	GBUT				L
166097	0	0	94210	I	U	2004/07/03	2003/12/23	121809	78971	GB0006015332		Baillie Gifford & Co. Ltd.	GB				MF	Baillie Gifford Japanese Smaller Co. Fund Class C - Income		GBP	A	GBUT						0601533	F	GB		GB	GBUT				L
166099	0	0	94211	I	U	2004/07/03	2003/12/23	121811	78971	GB0006015449		Baillie Gifford & Co. Ltd.	GB				MF	Baillie Gifford Japanese Smaller Co. Fund Class C - Accumulation		GBP	A	GBUT						0601544	F	GB		GB	GBUT				L
166100	0	0	94212	I	U	2004/06/15	2003/12/23	121812	78971	GB0007402984		Baillie Gifford & Co. Ltd.	GB				MF	Baillie Gifford Phoenix Global Growth Fund - Accumulation		GBP	A	GBUT						0740298	F	GB		GB	GBUT				L
166103	0	0	94214	I	U	2007/03/21	2003/12/23	121815	78971	GB0000713858		Baillie Gifford & Co. Ltd.	GB				MF	Baillie Gifford Cash Fund Class A - Income		GBP	A	GBUT						0071385	F	GB		GB	GBUT				L
166105	0	0	171374	I	U	2013/07/23	2003/12/23	121817	78940	GB0030442213		Aviva Investors UK Fund Services Limited	GB				MF	Aviva Investors Distribution Fund Class 1 - Income		GBP	A	GBUT						3044221	F	GB		GB	GBUT				L
166106	0	0	94215	I	U	2009/10/21	2003/12/23	121818	78971	GB0031762098		Baillie Gifford & Co. Ltd.	GB				MF	Baillie Gifford Global Bond Fund Class C - Income		GBP	A	GBUT						3176209	F	GB		GB	GBUT				L
166108	0	0	94216	I	U	2010/06/26	2003/12/23	121820	79551	GB0001920486		Henderson Global Investors	GB				MF	Henderson Fixed Interest Monthly Income Fund - Income		GBP	A	GBUT						0192048	F	GB		GB	GBUT				L
166110	0	0	94217	I	U	2006/11/07	2003/12/23	121821	78971	GB0005946669		Baillie Gifford & Co. Ltd.	GB				MF	Baillie Gifford Corporate Bond Fund Class A - Income		GBP	A	GBUT						0594666	F	GB		GB	GBUT				L
166111	0	0	94218	I	U	2006/11/07	2003/12/23	121822	78971	GB0005946776		Baillie Gifford & Co. Ltd.	GB				MF	Baillie Gifford Corporate Bond Fund Class A - Accumulation		GBP	A	GBUT						0594677	F	GB		GB	GBUT				L
166112	0	0	94219	I	U	2006/11/07	2003/12/23	121824	78971	GB0005947741		Baillie Gifford & Co. Ltd.	GB				MF	Baillie Gifford Corporate Bond Fund Class B - Income		GBP	A	GBUT						0594774	F	GB		GB	GBUT				L
166114	0	0	94220	I	U	2006/11/07	2003/12/23	121825	78971	GB0005947857		Baillie Gifford & Co. Ltd.	GB				MF	Baillie Gifford Corporate Bond Fund Class B - Accumulation		GBP	A	GBUT						0594785	F	GB		GB	GBUT				L
166115	0	0	171375	I	U	2013/07/23	2003/12/23	121826	78940	GB0030442320		Aviva Investors UK Fund Services Limited	GB				MF	Aviva Investors Distribution Fund Class 2 - Income		GBP	A	GBUT						3044232	F	GB		GB	GBUT				L
166116	0	0	94221	I	U	2006/11/07	2003/12/23	121827	78971	GB0005948590		Baillie Gifford & Co. Ltd.	GB				MF	Baillie Gifford Corporate Bond Fund Class C - Income		GBP	A	GBUT						0594859	F	GB		GB	GBUT				L
166118	0	0	94222	U	U	2008/11/08	2003/12/23	121829	78971	GB0006063019		Baillie Gifford & Co. Ltd.	GB				MF	Baillie Gifford Pacific Fund Class A - Income		GBP	I	GBUT						0606301	T	GB		GB	GBUT				L
166119	0	0	94223	I	U	2004/07/24	2003/12/23	121830	78971	GB0006063126		Baillie Gifford & Co. Ltd.	GB				MF	Baillie Gifford Pacific Fund Class A - Accumulation		GBP	A	GBUT						0606312	F	GB		GB	GBUT				L
166121	0	0	94224	I	U	2004/07/24	2003/12/23	121832	78971	GB0006063340		Baillie Gifford & Co. Ltd.	GB				MF	Baillie Gifford Pacific Fund Class B - Income		GBP	A	GBUT						0606334	F	GB		GB	GBUT				L
166122	0	0	94225	I	U	2004/07/24	2003/12/23	121833	78971	GB0006063233		Baillie Gifford & Co. Ltd.	GB				MF	Baillie Gifford Pacific Fund Class B - Accumulation		GBP	A	GBUT						0606323	F	GB		GB	GBUT				L
166123	0	0	171376	I	U	2013/07/23	2003/12/23	121834	78940	GB0030442437		Aviva Investors UK Fund Services Limited	GB				MF	Aviva Investors Distribution Fund Class 3 - Income		GBP	A	GBUT						3044243	F	GB		GB	GBUT				L
166124	0	0	94227	I	U	2004/07/24	2003/12/23	121835	78971	GB0006063456		Baillie Gifford & Co. Ltd.	GB				MF	Baillie Gifford Pacific Fund Class C - Income		GBP	A	GBUT						0606345	F	GB		GB	GBUT				L
166126	0	0	94228	I	U	2004/07/24	2003/12/23	121837	78971	GB0006064199		Baillie Gifford & Co. Ltd.	GB				MF	Baillie Gifford Pacific Fund Class C - Accumulation		GBP	A	GBUT						0606419	F	GB		GB	GBUT				L
166128	0	0	94229	U	U	2006/05/29	2003/12/23	121838	78971	GB0006059009		Baillie Gifford & Co. Ltd.	GB				MF	Baillie Gifford European Smaller Co`s Fund Class A - Income		GBP	I	GBUT						0605900	T	GB		GB	GBUT				L
166131	0	0	94230	I	U	2011/05/16	2003/12/23	121840	78971	GB0006059116		Baillie Gifford & Co. Ltd.	GB				MF	Baillie Gifford Global Discovery Fund Class A - Accumulation		GBP	A	GBUT						0605911	F	GB		GB	GBUT				L
166132	0	0	94231	I	U	2011/05/16	2003/12/23	121841	78971	GB0006059223		Baillie Gifford & Co. Ltd.	GB				MF	Baillie Gifford Global Discovery Fund Class B - Income		GBP	A	GBUT						0605922	F	GB		GB	GBUT				L
166134	0	0	94232	I	U	2011/05/16	2003/12/24	121842	78971	GB0006059330		Baillie Gifford & Co. Ltd.	GB				MF	Baillie Gifford Global Discovery Fund Class B - Accumulation		GBP	A	GBUT						0605933	F	GB		GB	GBUT				L
166135	0	0	94233	I	U	2011/05/16	2003/12/24	121843	78971	GB0006059447		Baillie Gifford & Co. Ltd.	GB				MF	Baillie Gifford Global Discovery Fund Class C - Income		GBP	A	GBUT						0605944	F	GB		GB	GBUT				L
166136	0	0	94234	I	U	2011/05/16	2003/12/24	121844	78971	GB0006059553		Baillie Gifford & Co. Ltd.	GB				MF	Baillie Gifford Global Discovery Fund Class C - Accumulation		GBP	A	GBUT						0605955	F	GB		GB	GBUT				L
166137	0	0	96196	U	U	2013/07/03	2003/12/24	121845	78973	GB0006572464		Artemis Fund Managers Limited	GB				MF	Artemis UK Equity Income Fund Class R - Income		GBP	A	GBUT						0657246	F	GB		GB	GBUT				L
166139	0	0	94235	I	U	2004/07/24	2003/12/24	121846	78971	GB0030491418		Baillie Gifford & Co. Ltd.	GB				MF	Baillie Gifford Developed Asia Pacific Fund Class A - Accumulation		GBP	A	GBUT						3049141	F	GB		GB	GBUT				L
166141	0	0	100839	I	U	2013/07/23	2003/12/24	121847	78940	GB0004459359		Aviva Investors UK Fund Services Limited	GB				MF	Aviva Investors Corporate Bond Fund Class 1 - Income		GBP	A	GBUT						0445935	F	GB		GB	GBUT				L
166143	0	0	94236	I	U	2004/07/24	2003/12/24	121848	78971	GB0030492044		Baillie Gifford & Co. Ltd.	GB				MF	Baillie Gifford Developed Asia Pacific Fund Class B - Accumulation		GBP	A	GBUT						3049204	F	GB		GB	GBUT				L
166144	0	0	94237	I	U	2004/07/24	2003/12/24	121849	78971	GB0030492267		Baillie Gifford & Co. Ltd.	GB				MF	Baillie Gifford Developed Asia Pacific Fund Class C - Income		GBP	A	GBUT						3049226	F	GB		GB	GBUT				L
166145	0	0	96198	U	U	2013/07/03	2003/12/24	121850	78973	GB0032567926		Artemis Fund Managers Limited	GB				MF	Artemis UK Equity Income Fund Class R - Accumulation		GBP	A	GBUT						3256792	F	GB		GB	GBUT				L
166146	0	0	94238	I	U	2004/07/24	2003/12/24	121851	78971	GB0030492598		Baillie Gifford & Co. Ltd.	GB				MF	Baillie Gifford Developed Asia Pacific Fund Class C - Accumulation		GBP	A	GBUT						3049259	F	GB		GB	GBUT				L
166147	0	0	100840	I	U	2013/07/23	2003/12/24	121852	78940	GB0004462957		Aviva Investors UK Fund Services Limited	GB				MF	Aviva Investors Corporate Bond Fund Class 2 - Income		GBP	A	GBUT						0446295	F	GB		GB	GBUT				L
166148	0	0	94239	I	U	2004/06/15	2003/12/24	121854	78971	GB0006002397		Baillie Gifford & Co. Ltd.	GB				MF	Baillie Gifford Managed Fund Class A - Income		GBP	A	GBUT						0600239	F	GB		GB	GBUT				L
166149	0	0	94240	I	U	2004/06/15	2003/12/24	121855	78971	GB0006007891		Baillie Gifford & Co. Ltd.	GB				MF	Baillie Gifford Managed Fund Class A - Accumulation		GBP	A	GBUT						0600789	F	GB		GB	GBUT				L
166150	0	0	94241	I	U	2004/06/15	2003/12/24	121856	78971	GB0006007909		Baillie Gifford & Co. Ltd.	GB				MF	Baillie Gifford Managed Fund Class B - Income		GBP	A	GBUT						0600790	F	GB		GB	GBUT				L
166151	0	0	94242	I	U	2004/06/15	2003/12/24	121857	78971	GB0006010168		Baillie Gifford & Co. Ltd.	GB				MF	Baillie Gifford Managed Fund Class B - Accumulation		GBP	A	GBUT						0601016	F	GB		GB	GBUT				L
166152	0	0	94243	I	U	2004/06/15	2003/12/24	121858	78971	GB0006010499		Baillie Gifford & Co. Ltd.	GB				MF	Baillie Gifford Managed Fund Class C - Income		GBP	A	GBUT						0601049	F	GB		GB	GBUT				L
166153	0	0	100841	I	U	2013/07/23	2003/12/24	121859	78940	GB0004464557		Aviva Investors UK Fund Services Limited	GB				MF	Aviva Investors Corporate Bond Fund Class 3 - Income		GBP	A	GBUT						0446455	F	GB		GB	GBUT				L
166154	0	0	107850	I	U	2005/06/02	2003/12/24	121860	78973	GB0002583598		Artemis Fund Managers Limited	GB				MF	Artemis UK Smaller Companies Fund - Accumulation		GBP	A	GBUT						0258359	F	GB		GB	GBUT				L
166155	0	0	94244	I	U	2006/11/07	2003/12/24	121861	78971	GB0030816374		Baillie Gifford & Co. Ltd.	GB				MF	Baillie Gifford Investment Grade Bond Fund Class A - Income		GBP	A	GBUT						3081637	F	GB		GB	GBUT				L
166156	0	0	94245	I	U	2006/11/07	2003/12/24	121862	78971	GB0030816481		Baillie Gifford & Co. Ltd.	GB				MF	Baillie Gifford Investment Grade Bond Fund Class B - Income		GBP	A	GBUT						3081648	F	GB		GB	GBUT				L
166157	0	0	94246	I	U	2006/11/07	2003/12/24	121863	78971	GB0030816598		Baillie Gifford & Co. Ltd.	GB				MF	Baillie Gifford Investment Grade Bond Fund Class C - Income		GBP	A	GBUT						3081659	F	GB		GB	GBUT				L
166158	0	0	94247	I	U	2013/07/23	2003/12/24	121864	78940	GB0032494683		Aviva Investors UK Fund Services Limited	GB				MF	Aviva Investors Corporate Bond Fund Class A - Income		GBP	A	GBUT						3249468	F	GB		GB	GBUT				L
166159	0	0	107851	I	U	2005/06/02	2003/12/24	121865	78973	GB0002192267		Artemis Fund Managers Limited	GB				MF	Artemis UK Special Situations Fund - Accumulation		GBP	A	GBUT						0219226	F	GB		GB	GBUT				L
166160	0	0	94248	I	U	2006/11/11	2003/12/24	121866	78971	GB0030816606		Baillie Gifford & Co. Ltd.	GB				MF	Baillie Gifford High Yield Bond Fund Class A - Income		GBP	A	GBUT						3081660	F	GB		GB	GBUT				L
166161	0	0	94249	I	U	2006/11/11	2003/12/24	121867	78971	GB0030816713		Baillie Gifford & Co. Ltd.	GB				MF	Baillie Gifford High Yield Bond Fund Class B - Income		GBP	A	GBUT						3081671	F	GB		GB	GBUT				L
166162	0	0	94250	I	U	2006/11/11	2003/12/24	121868	78971	GB0030816820		Baillie Gifford & Co. Ltd.	GB				MF	Baillie Gifford High Yield Bond Fund Class C - Income		GBP	A	GBUT						3081682	F	GB		GB	GBUT				L
166163	0	0	100851	I	U	2013/07/23	2003/12/24	121869	78940	GB0008531187		Aviva Investors UK Fund Services Limited	GB				MF	Aviva Investors Higher Income Plus Fund Class 1 - Income		GBP	A	GBUT						0853118	F	GB		GB	GBUT				L
166164	0	0	107848	U	U	2005/06/02	2003/12/24	121870	78973	GB0002583267		Artemis Fund Managers Limited	GB				MF	Artemis UK Growth Fund - Accumulation		GBP	A	GBUT						0258326	F	GB		GB	GBUT				L
166165	0	0	103984	I	U	2011/06/09	2003/12/24	121871	78973	GB0006795529		Artemis Fund Managers Limited	GB				MF	Artemis Capital Fund Class R - Accumulation		GBP	A	GBUT						0679552	F	GB		GB	GBUT				L
166166	0	0	100852	I	U	2013/07/23	2003/12/24	121872	78940	GB0008531302		Aviva Investors UK Fund Services Limited	GB				MF	Aviva Investors Higher Income Plus Fund Class 2 - Income		GBP	A	GBUT						0853130	F	GB		GB	GBUT				L
166167	0	0	100854	I	U	2013/07/23	2003/12/24	121873	78940	GB0008531526		Aviva Investors UK Fund Services Limited	GB				MF	Aviva Investors Higher Income Plus Fund Class 3 - Income		GBP	A	GBUT						0853152	F	GB		GB	GBUT				L
166168	0	0	94251	I	U	2013/07/23	2003/12/24	121874	78940	GB0032494576		Aviva Investors UK Fund Services Limited	GB				MF	Aviva Investors Higher Income Plus Fund Class A - Income		GBP	A	GBUT						3249457	F	GB		GB	GBUT				L
166169	0	0	100868	I	U	2013/07/23	2003/12/24	121875	78940	GB0030443518		Aviva Investors UK Fund Services Limited	GB				MF	Aviva Investors Monthly Income Plus Fund Class 1 - Income		GBP	A	GBUT						3044351	F	GB		GB	GBUT				L
166171	0	0	100873	I	U	2013/07/23	2003/12/24	121877	78940	GB0030443732		Aviva Investors UK Fund Services Limited	GB				MF	Aviva Investors Monthly Income Plus Fund Class 3 - Income		GBP	A	GBUT						3044373	F	GB		GB	GBUT				L
166172	0	0	100865	I	U	2013/07/23	2003/12/24	121878	78940	GB0030443286		Aviva Investors UK Fund Services Limited	GB				MF	Aviva Investors Monthly Income Plus Fund Class 1 - Accumulation		GBP	A	GBUT						3044328	F	GB		GB	GBUT				L
166177	0	0	100871	I	U	2013/07/23	2003/12/24	121883	78940	GB0030443401		Aviva Investors UK Fund Services Limited	GB				MF	Aviva Investors Monthly Income Plus Fund Class 3 - Accumulation		GBP	A	GBUT						3044340	F	GB		GB	GBUT				L
166181	0	0	100844	I	U	2013/07/23	2003/12/24	121887	78940	GB0004457973		Aviva Investors UK Fund Services Limited	GB				MF	Aviva Investors European Equity Fund Class 1 - Accumulation		GBP	A	GBUT						0445797	F	GB		GB	GBUT				L
166183	0	0	100846	I	U	2013/07/23	2003/12/24	121889	78940	GB0004461322		Aviva Investors UK Fund Services Limited	GB				MF	Aviva Investors European Equity Fund Class 2 - Accumulation		GBP	A	GBUT						0446132	F	GB		GB	GBUT				L
166184	0	0	100848	I	U	2013/07/23	2003/12/24	121890	78940	GB0004463708		Aviva Investors UK Fund Services Limited	GB				MF	Aviva Investors European Equity Fund Class 3 - Income		GBP	A	GBUT						0446370	F	GB		GB	GBUT				L
166185	0	0	94256	I	U	2013/07/23	2003/12/24	121891	78940	GB0032494246		Aviva Investors UK Fund Services Limited	GB				MF	Aviva Investors European Equity Fund Class A - Accumulation		GBP	A	GBUT						3249424	F	GB		GB	GBUT				L
166209	0	0	94278	I	U	2007/07/10	2003/12/24	121914	78983	GB0002695558		McInroy & Wood Portfolios Ltd	GB				MF	MW Investment Trust Fund - Income		GBP	A	GBUT						0269555	T	GB		GB	GBUT				L
166210	0	0	94279	I	U	2004/05/07	2003/12/24	121915	78971	GB0005930382		Baillie Gifford & Co. Ltd.	GB				MF	Baillie Gifford British Smaller Companies Fund Class B - Income		GBP	A	GBUT						0593038	F	GB		GB	GBUT				L
166211	0	0	94280	I	U	2004/05/07	2003/12/24	121916	78971	GB0005931570		Baillie Gifford & Co. Ltd.	GB				MF	Baillie Gifford British Smaller Companies Fund Class C - Income		GBP	A	GBUT						0593157	F	GB		GB	GBUT				L
166212	0	0	94281	I	U	2004/05/07	2003/12/24	121917	78971	GB0005924773		Baillie Gifford & Co. Ltd.	GB				MF	Baillie Gifford British Smaller Companies Fund Class A - Accumulation		GBP	A	GBUT						0592477	F	GB		GB	GBUT				L
166213	0	0	94282	I	U	2007/07/10	2003/12/24	121918	78983	GB0002695889		McInroy & Wood Portfolios Ltd	GB				MF	MW Investment Trust Fund - Accumulation		GBP	A	GBUT						0269588	T	GB		GB	GBUT				L
166214	0	0	94283	I	U	2004/05/07	2003/12/24	121919	78971	GB0005931356		Baillie Gifford & Co. Ltd.	GB				MF	Baillie Gifford British Smaller Companies Fund Class B - Accumulation		GBP	A	GBUT						0593135	F	GB		GB	GBUT				L
166215	0	0	94284	I	U	2004/05/07	2003/12/24	121920	78971	GB0005933394		Baillie Gifford & Co. Ltd.	GB				MF	Baillie Gifford British Smaller Companies Fund Class C - Accumulation		GBP	A	GBUT						0593339	F	GB		GB	GBUT				L
166216	0	0	94285	I	U	2006/05/29	2003/12/24	121921	78971	GB0006057177		Baillie Gifford & Co. Ltd.	GB				MF	Baillie Gifford European Fund Class A - Income		GBP	I	GBUT						0605717	T	GB		GB	GBUT				L
166217	0	0	94286	I	U	2004/07/24	2003/12/24	121922	78971	GB0006057284		Baillie Gifford & Co. Ltd.	GB				MF	Baillie Gifford European Fund Class A - Accumulation		GBP	A	GBUT						0605728	F	GB		GB	GBUT				L
166218	0	0	94287	I	U	2004/07/24	2003/12/24	121923	78971	GB0006057391		Baillie Gifford & Co. Ltd.	GB				MF	Baillie Gifford European Fund Class B - Income		GBP	A	GBUT						0605739	F	GB		GB	GBUT				L
166219	0	0	94288	I	U	2007/07/10	2003/12/24	121924	78983	GB0030274152		McInroy & Wood Portfolios Ltd	GB				MF	MW Smaller Companies Fund - Income		GBP	A	GBUT						3027415	F	GB		GB	GBUT				L
166220	0	0	94289	I	U	2004/07/24	2003/12/24	121925	78971	GB0006058258		Baillie Gifford & Co. Ltd.	GB				MF	Baillie Gifford European Fund Class B - Accumulation		GBP	A	GBUT						0605825	F	GB		GB	GBUT				L
166221	0	0	94290	I	U	2004/07/24	2003/12/24	121926	78971	GB0006058928		Baillie Gifford & Co. Ltd.	GB				MF	Baillie Gifford European Fund Class C - Accumulation		GBP	A	GBUT						0605892	F	GB		GB	GBUT				L
166222	0	0	94291	U	U	2008/11/08	2003/12/24	121927	78971	GB0006061633		Baillie Gifford & Co. Ltd.	GB				MF	Baillie Gifford American Fund Class A - Income		GBP	I	GBUT						0606163	T	GB		GB	GBUT				L
166223	0	0	94292	I	U	2004/07/05	2003/12/24	121928	78971	GB0006061740		Baillie Gifford & Co. Ltd.	GB				MF	Baillie Gifford American Fund Class A - Accumulation		GBP	A	GBUT						0606174	F	GB		GB	GBUT				L
166224	0	0	94293	I	U	2004/07/05	2003/12/24	121929	78971	GB0006061856		Baillie Gifford & Co. Ltd.	GB				MF	Baillie Gifford American Fund Class B - Income		GBP	A	GBUT						0606185	F	GB		GB	GBUT				L
166225	0	0	94294	I	U	2007/07/10	2003/12/24	121930	78983	GB0005585095		McInroy & Wood Portfolios Ltd	GB				MF	MW Income Fund - Income		GBP	A	GBUT						0558509	F	GB		GB	GBUT				L
166226	0	0	94295	I	U	2004/07/05	2003/12/24	121931	78971	GB0006061963		Baillie Gifford & Co. Ltd.	GB				MF	Baillie Gifford American Fund Class B - Accumulation		GBP	A	GBUT						0606196	F	GB		GB	GBUT				L
166227	0	0	94296	I	U	2004/06/15	2003/12/24	121932	78971	GB0006062151		Baillie Gifford & Co. Ltd.	GB				MF	Baillie Gifford American Fund Class C - Accumulation		GBP	A	GBUT						0606215	F	GB		GB	GBUT				L
166229	0	0	94297	I	U	2006/12/13	2003/12/24	121933	78971	GB0032501818		Baillie Gifford & Co. Ltd.	GB				MF	Baillie Gifford Investment Grade Long Bond Fund Class B - Income		GBP	A	GBUT						3250181	F	GB		GB	GBUT				L
166231	0	0	94299	I	U	2006/12/13	2003/12/24	121934	78971	GB0032501925		Baillie Gifford & Co. Ltd.	GB				MF	Baillie Gifford Investment Grade Long Bond Fund Class C - Income		GBP	A	GBUT						3250192	F	GB		GB	GBUT				L
166230	0	0	94298	I	U	2007/07/10	2003/12/24	121935	78983	GB0005543250		McInroy & Wood Portfolios Ltd	GB				MF	MW Balanced Fund - Income		GBP	A	GBUT						0554325	F	GB		GB	GBUT				L
166235	0	0	94303	I	U	2011/01/03	2003/12/24	121938	78971	GB0032502113		Baillie Gifford & Co. Ltd.	GB				MF	Baillie Gifford Active Long Gilt Plus Fund Class B - Income		GBP	A	GBUT						3250211	F	GB		GB	GBUT				L
166237	0	0	94305	I	U	2011/01/03	2003/12/24	121940	78971	GB0032502220		Baillie Gifford & Co. Ltd.	GB				MF	Baillie Gifford Active Long Gilt Plus Fund Class C - Income		GBP	A	GBUT						3250222	F	GB		GB	GBUT				L
166238	0	0	108459	I	U	2005/02/21	2003/12/24	121941	78987	GB0009301291		Virgin Money Unit Trust Managers Limited	GB				MF	Virgin Income Trust - Income		GBP	A	GBUT						0930129	F	GB		GB	GBUT				L
166247	0	0	94308	I	U	2010/09/08	2003/12/24	121946	78971	GB0005857569		Baillie Gifford & Co. Ltd.	GB				MF	Baillie Gifford UK Equity Alpha Fund Class A - Income		GBP	A	GBUT						0585756	F	GB		GB	GBUT				L
166249	0	0	94309	I	U	2010/09/08	2003/12/24	121948	78971	GB0005857783		Baillie Gifford & Co. Ltd.	GB				MF	Baillie Gifford UK Equity Alpha Fund Class A - Accumulation		GBP	A	GBUT						0585778	F	GB		GB	GBUT				L
166250	0	0	94310	I	U	2010/09/08	2003/12/24	121949	78971	GB0005857908		Baillie Gifford & Co. Ltd.	GB				MF	Baillie Gifford UK Equity Alpha Fund Class B - Income		GBP	A	GBUT						0585790	F	GB		GB	GBUT				L
166251	0	0	94311	I	U	2010/09/08	2003/12/24	121950	78971	GB0005858195		Baillie Gifford & Co. Ltd.	GB				MF	Baillie Gifford UK Equity Alpha Fund Class B - Accumulation		GBP	A	GBUT						0585819	F	GB		GB	GBUT				L
166252	0	0	94312	I	U	2016/04/04	2003/12/24	121951	78989	GB0001298750		Ignis Asset Management	GB				MF	SLI Ignis Pacific Growth Fund - Income		GBP	I	GBUT						0129875	F	GB		GB	GBUT				L
166254	0	0	94313	I	U	2010/09/08	2003/12/24	121952	78971	GB0005858310		Baillie Gifford & Co. Ltd.	GB				MF	Baillie Gifford UK Equity Alpha Fund Class C - Income		GBP	A	GBUT						0585831	F	GB		GB	GBUT				L
166255	0	0	94314	I	U	2016/04/04	2003/12/24	121954	78989	GB0002395365		Ignis Asset Management	GB				MF	SLI Ignis Pacific Growth Fund - Accumulation		GBP	I	GBUT						0239536	F	GB		GB	GBUT				L
166256	0	0	94315	I	U	2010/09/08	2003/12/24	121955	78971	GB0005864920		Baillie Gifford & Co. Ltd.	GB				MF	Baillie Gifford UK Equity Alpha Fund Class C - Accumulation		GBP	A	GBUT						0586492	F	GB		GB	GBUT				L
166257	0	0	102489	I	U	2005/02/11	2003/12/24	121956	78987	GB0009304311		Virgin Money Unit Trust Managers Limited	GB				MF	Virgin UK Index Tracking Trust - Income		GBP	A	GBUT						0930431	F	GB		GB	GBUT				L
166261	0	0	94317	I	U	2006/07/28	2003/12/24	121960	78971	GB0005934368		Baillie Gifford & Co. Ltd.	GB				MF	Baillie Gifford International Fund Class A - Income		GBP	I	GBUT						0593436	T	GB		GB	GBUT				L
166263	0	0	94319	I	U	2004/06/15	2003/12/24	121962	78971	GB0005937932		Baillie Gifford & Co. Ltd.	GB				MF	Baillie Gifford International Fund Class A - Accumulation		GBP	A	GBUT						0593793	F	GB		GB	GBUT				L
EDI_ENDOFFILE
